   ID LCB LMS LBM   LP   LM  LAM CLUSTER2 CLUSTER3
1   C 129  64  95 17.5 11.2 13.8        1        1
2   C 154  74  76 20.0 14.2 16.5        1        1
3   C 170  87  71 17.9 12.3 15.9        1        1
4   C 188  94  73 19.5 13.3 14.8        1        1
5   C 161  81  55 17.1 12.1 13.0        1        1
6   C 164  90  58 17.5 12.7 14.7        1        1
7   C 203 109  65 20.7 14.0 16.8        2        2
8   C 178  97  57 17.3 12.8 14.3        1        1
9   C 212 114  65 20.5 14.3 15.5        2        2
10  C 221 123  62 21.2 15.2 17.0        2        2
11  C 183  97  52 19.3 12.9 13.5        1        1
12  C 212 112  65 19.7 14.2 16.0        2        2
13  C 220 117  70 19.8 14.3 15.6        2        2
14  C 216 113  72 20.5 14.4 17.7        2        2
15  C 216 112  75 19.6 14.0 16.4        2        2
16  C 205 110  68 20.8 14.1 16.4        2        2
17  C 228 122  78 22.5 14.2 17.8        2        3
18  C 218 112  65 20.3 13.9 17.0        2        2
19  C 190  93  78 19.7 13.2 14.0        1        1
20  C 212 111  73 20.5 13.7 16.6        2        2
21  C 201 105  70 19.8 14.3 15.9        2        2
22  C 196 106  67 18.5 12.6 14.2        1        1
23  C 158  71  71 16.7 12.5 13.3        1        1
24  C 255 126  86 21.4 15.0 18.0        2        3
25  C 234 113  83 21.3 14.8 17.0        2        3
26  C 205 105  70 19.0 12.4 14.9        1        1
27  C 186  97  62 19.0 13.2 14.2        1        1
28  C 241 119  87 21.0 14.7 18.3        2        3
29  C 220 111  88 22.5 15.4 18.0        2        3
30  C 242 120  85 19.9 15.3 17.6        2        3
31  L 199 105  73 23.4 15.0 19.1        2        2
32  L 227 117  77 25.0 15.3 18.6        2        3
33  L 228 122  82 24.7 15.0 18.5        2        3
34  L 232 123  83 25.3 16.8 15.5        2        3
35  L 231 121  78 23.5 16.5 19.6        2        3
36  L 215 118  74 25.7 15.7 19.0        2        3
37  L 184 100  69 23.3 15.8 19.7        2        2
38  L 175  94  73 22.2 14.8 17.0        2        2
39  L 239 124  77 25.0 16.8 27.0        2        3
40  L 203 109  70 23.3 15.0 18.7        2        2
41  L 226 118  72 26.0 16.0 19.4        2        3
42  L 226 119  77 26.5 16.8 19.3        2        3
43  * 210 103  72 20.5 14.0 16.7        2        2
